This is BibTeX, Version 0.99d (TeX Live 2022)
Capacity: max_strings=200000, hash_size=200000, hash_prime=170003
The top-level auxiliary file: main.aux
The style file: unsrt.bst
Database file #1: bib.bib
Warning--empty journal in windridgehybrid
Warning--empty year in windridgehybrid
You've used 10 entries,
            1791 wiz_defined-function locations,
            504 strings with 6233 characters,
and the built_in function-call counts, 3200 in all, are:
= -- 287
> -- 161
< -- 7
+ -- 57
- -- 47
* -- 215
:= -- 477
add.period$ -- 33
call.type$ -- 10
change.case$ -- 9
chr.to.int$ -- 0
cite$ -- 12
duplicate$ -- 149
empty$ -- 291
format.name$ -- 47
if$ -- 740
int.to.chr$ -- 0
int.to.str$ -- 10
missing$ -- 11
newline$ -- 52
num.names$ -- 10
pop$ -- 47
preamble$ -- 1
purify$ -- 0
quote$ -- 0
skip$ -- 86
stack$ -- 0
substring$ -- 217
swap$ -- 59
text.length$ -- 7
text.prefix$ -- 0
top$ -- 0
type$ -- 0
warning$ -- 2
while$ -- 32
width$ -- 12
write$ -- 112
(There were 2 warnings)
